Lab-6
…
Question 1: What specialties do we have?

mt_samples %>%
  count(medical_specialty, sort = TRUE)

# A tibble: 40 × 2
   medical_specialty                 n
   <chr>                         <int>
 1 Surgery                        1103
 2 Consult - History and Phy.      516
 3 Cardiovascular / Pulmonary      372
 4 Orthopedic                      355
 5 Radiology                       273
 6 General Medicine                259
 7 Gastroenterology                230
 8 Neurology                       223
 9 SOAP / Chart / Progress Notes   166
10 Obstetrics / Gynecology         160
# ℹ 30 more rows

There are 40 different specialties represented, with surgery being the most frequently represented specialty.

Question 2

mt_samples %>%
  unnest_tokens(word, transcription) %>%
  count(word, sort = TRUE)

# A tibble: 23,647 × 2
   word         n
   <chr>    <int>
 1 the     149888
 2 and      82779
 3 was      71765
 4 of       59205
 5 to       50632
 6 a        42810
 7 with     35815
 8 in       32807
 9 is       26378
10 patient  22065
# ℹ 23,637 more rows
…
Tokenizing into bi-grams yields phrases still mostly consisting of stop words. Tokenizing into tri-grams starts to give us a little more insight of what information is being recorded about patients and actions taken during procedures/surgeries. “Patient” still stands out as a very commonly used word when looking at both bi-grams and tri-grams.

Question 5

mt_samples %>%
  unnest_ngrams(ngram, transcription, n = 2) %>%
  separate(ngram, into = c("word1", "word2"), sep = " ") %>%
  select(word1, word2) %>%
  filter(word1 == "patient") %>%
  count(word2, sort = TRUE)

# A tibble: 588 × 2
   word2         n
   <chr>     <int>
 1 was        6293
 2 is         3332
 3 has        1417
 4 tolerated   994
 5 had         888
 6 will        616
 7 denies      552
 8 and         377
 9 states      363
10 does        334
# ℹ 578 more rows

mt_samples %>%
  unnest_ngrams(ngram, transcription, n = 2) %>%
  separate(ngram, into = c("word1", "word2"), sep = " ") %>%
  select(word1, word2) %>%
  filter(word2 == "patient") %>%
  count(word1, sort = TRUE)

# A tibble: 269 × 2
   word1         n
   <chr>     <int>
 1 the       20307
 2 this        470
 3 history     101
 4 a            67
 5 and          47
 6 procedure    32
 7 female       26
 8 with         25
 9 use          24
10 old          23
# ℹ 259 more rows

Question 6

mt_samples %>%
  unnest_tokens(word, transcription) %>%
  anti_join(stop_words, by = c("word")) %>%
  filter(!grepl("^\\d+$", word)) %>%
  filter(word != "patient") %>%
  group_by(medical_specialty) %>%
  count(word) %>%
  top_n(5, n)

# A tibble: 205 × 3
# Groups:   medical_specialty [40]
   medical_specialty    word          n
   <chr>                <chr>     <int>
 1 Allergy / Immunology allergies    21
 2 Allergy / Immunology history      38
 3 Allergy / Immunology nasal        13
 4 Allergy / Immunology noted        23
 5 Allergy / Immunology past         13
 6 Autopsy              anterior     47
 7 Autopsy              body         40
 8 Autopsy              inch         59
 9 Autopsy              left         83
10 Autopsy              neck         55
# ℹ 195 more rows

Note: I removed the word “patient” because it is a word that is common across specialties.

Question 7 - extra

mt_samples %>%
  unnest_tokens(word, transcription) %>%
  anti_join(stop_words, by = c("word")) %>%
  filter(!grepl("^\\d+$", word)) %>%
  filter(word != "patient") %>%
  count(word, medical_specialty) %>%
  bind_tf_idf(word, medical_specialty, n) %>%
  arrange(desc(tf_idf))

# A tibble: 143,883 × 6
   word         medical_specialty            n      tf   idf tf_idf
   <chr>        <chr>                    <int>   <dbl> <dbl>  <dbl>
 1 carbohydrate Diets and Nutritions        37 0.0214   2.30 0.0494
 2 calories     Diets and Nutritions        24 0.0139   1.61 0.0224
 3 meal         Diets and Nutritions        26 0.0151   1.29 0.0195
 4 reactivity   Lab Medicine - Pathology     7 0.00605  3.00 0.0181
 5 snack        Diets and Nutritions        15 0.00870  2.08 0.0181
 6 tooth        Dentistry                  108 0.0164   1.05 0.0172
 7 linguistic   Speech - Language           13 0.00732  2.30 0.0169
 8 servings     Diets and Nutritions        13 0.00754  2.08 0.0157
 9 muir         Speech - Language           10 0.00563  2.59 0.0146
10 passy        Speech - Language           10 0.00563  2.59 0.0146
# ℹ 143,873 more rows
